\relax 
\providecommand\hyper@newdestlabel[2]{}
\providecommand\HyperFirstAtBeginDocument{\AtBeginDocument}
\HyperFirstAtBeginDocument{\ifx\hyper@anchor\@undefined
\global\let\oldcontentsline\contentsline
\gdef\contentsline#1#2#3#4{\oldcontentsline{#1}{#2}{#3}}
\global\let\oldnewlabel\newlabel
\gdef\newlabel#1#2{\newlabelxx{#1}#2}
\gdef\newlabelxx#1#2#3#4#5#6{\oldnewlabel{#1}{{#2}{#3}}}
\AtEndDocument{\ifx\hyper@anchor\@undefined
\let\contentsline\oldcontentsline
\let\newlabel\oldnewlabel
\fi}
\fi}
\global\let\hyper@last\relax 
\gdef\HyperFirstAtBeginDocument#1{#1}
\providecommand\HyField@AuxAddToFields[1]{}
\providecommand\HyField@AuxAddToCoFields[2]{}
\@writefile{toc}{\contentsline {section}{Data Structures}{3}{section*.2}}
\@writefile{toc}{\contentsline {subsection}{PBDS Tree}{3}{section*.3}}
\newlabel{data_structures/src/pbds_tree}{{1}{3}{O(n lg n)}{lstlisting.1}{}}
\@writefile{lol}{\contentsline {lstlisting}{\numberline {1}O(n lg n)}{3}{lstlisting.1}}
\@writefile{toc}{\contentsline {section}{Graph}{4}{section*.4}}
\@writefile{toc}{\contentsline {subsection}{DFS applications}{4}{section*.5}}
\@writefile{toc}{\contentsline {subsubsection}{Bipartite Check}{4}{section*.6}}
\newlabel{graph/src/bipartite_check}{{2}{4}{O(V + E)}{lstlisting.2}{}}
\@writefile{lol}{\contentsline {lstlisting}{\numberline {2}O(V + E)}{4}{lstlisting.2}}
\@writefile{toc}{\contentsline {subsubsection}{Articulation points and bridges}{5}{section*.7}}
\newlabel{graph/src/articulation_points_and_bridges}{{3}{5}{O(V + E)}{lstlisting.3}{}}
\@writefile{lol}{\contentsline {lstlisting}{\numberline {3}O(V + E)}{5}{lstlisting.3}}
\@writefile{toc}{\contentsline {subsubsection}{Strongly connected components}{7}{section*.8}}
\newlabel{graph/src/strongly_connected_components_tarjan}{{4}{7}{O(V + E)}{lstlisting.4}{}}
\@writefile{lol}{\contentsline {lstlisting}{\numberline {4}O(V + E)}{7}{lstlisting.4}}
\@writefile{toc}{\contentsline {subsection}{Trees}{9}{section*.9}}
\@writefile{toc}{\contentsline {subsubsection}{DSU on Tree}{9}{section*.10}}
\newlabel{graph/src/dsu_on_tree}{{5}{9}{O(N log N) for all queries}{lstlisting.5}{}}
\@writefile{lol}{\contentsline {lstlisting}{\numberline {5}O(N log N) for all queries}{9}{lstlisting.5}}
\@writefile{toc}{\contentsline {subsubsection}{LCA}{11}{section*.11}}
\newlabel{graph/src/lca_sqrt_n}{{}{11}{}{lstlisting.-1}{}}
\@writefile{lol}{\contentsline {lstlisting}{graph/src/lca\textunderscore sqrt\textunderscore n.cpp}{11}{lstlisting.-1}}
\newlabel{graph/src/lca_lg_n}{{}{12}{}{lstlisting.-2}{}}
\@writefile{lol}{\contentsline {lstlisting}{graph/src/lca\textunderscore lg\textunderscore n.cpp}{12}{lstlisting.-2}}
\@writefile{toc}{\contentsline {section}{Geometry}{14}{section*.12}}
\@writefile{toc}{\contentsline {subsection}{Points and Lines}{14}{section*.13}}
\@writefile{toc}{\contentsline {subsection}{Trigonometry}{15}{section*.14}}
\@writefile{toc}{\contentsline {subsection}{Circle}{16}{section*.15}}
\newlabel{geometry/src/minimum_enclosing_circle}{{6}{16}{Minimum Enclosing Circle Algorithm}{lstlisting.6}{}}
\@writefile{lol}{\contentsline {lstlisting}{\numberline {6}Minimum Enclosing Circle Algorithm}{16}{lstlisting.6}}
\@writefile{toc}{\contentsline {subsection}{Polygon}{18}{section*.16}}
\newlabel{geometry/src/convex_hull}{{7}{18}{Simple O(N*logN) Convex Hull Algorithm}{lstlisting.7}{}}
\@writefile{lol}{\contentsline {lstlisting}{\numberline {7}Simple O(N*logN) Convex Hull Algorithm}{18}{lstlisting.7}}
\@writefile{toc}{\contentsline {section}{Mathematics}{19}{section*.17}}
\@writefile{toc}{\contentsline {subsection}{Number Theory}{19}{section*.18}}
\@writefile{toc}{\contentsline {subsubsection}{Greatest common divisor and Least common multiple}{19}{section*.19}}
\newlabel{mathematics/src/gcd_lcm}{{8}{19}{O(log10(n))}{lstlisting.8}{}}
\@writefile{lol}{\contentsline {lstlisting}{\numberline {8}O(log10(n))}{19}{lstlisting.8}}
\@writefile{toc}{\contentsline {subsubsection}{Euler Totient Function from 1 to N}{20}{section*.20}}
\newlabel{mathematics/src/phi_range_lp}{{9}{20}{O(n)}{lstlisting.9}{}}
\@writefile{lol}{\contentsline {lstlisting}{\numberline {9}O(n)}{20}{lstlisting.9}}
\newlabel{mathematics/src/phi_range_nlgn}{{10}{20}{O(n lg n)}{lstlisting.10}{}}
\@writefile{lol}{\contentsline {lstlisting}{\numberline {10}O(n lg n)}{20}{lstlisting.10}}
\@writefile{toc}{\contentsline {section}{Dynamic Progamming}{21}{section*.21}}
\@writefile{toc}{\contentsline {subsection}{Max range sum (1D and 2D)}{21}{section*.22}}
\@writefile{toc}{\contentsline {subsubsection}{MAX 1D - Kadane}{21}{section*.23}}
\newlabel{dynamic_progamming/src/max_1d_sum_kadane}{{11}{21}{$O(n)$}{lstlisting.11}{}}
\@writefile{lol}{\contentsline {lstlisting}{\numberline {11}$O(n)$}{21}{lstlisting.11}}
\@writefile{toc}{\contentsline {subsubsection}{MAX 2D - Kadane}{22}{section*.24}}
\newlabel{dynamic_progamming/src/max_2d_sum_kadane}{{12}{22}{$O(n^3)$}{lstlisting.12}{}}
\@writefile{lol}{\contentsline {lstlisting}{\numberline {12}$O(n^3)$}{22}{lstlisting.12}}
\@writefile{toc}{\contentsline {subsubsection}{Longest Increasing Subsequence (LIS)}{23}{section*.25}}
\newlabel{dynamic_progamming/src/lis_nlogn}{{13}{23}{$O(nlog(n))$}{lstlisting.13}{}}
\@writefile{lol}{\contentsline {lstlisting}{\numberline {13}$O(nlog(n))$}{23}{lstlisting.13}}
\@writefile{toc}{\contentsline {subsubsection}{Knapsack 0-1}{24}{section*.26}}
\newlabel{dynamic_progamming/src/knapsack_0_1}{{14}{24}{$O(nw))$}{lstlisting.14}{}}
\@writefile{lol}{\contentsline {lstlisting}{\numberline {14}$O(nw))$}{24}{lstlisting.14}}
\newlabel{LastPage}{{}{24}{}{page.24}{}}
\xdef\lastpage@lastpage{24}
\xdef\lastpage@lastpageHy{24}
